{
  "type": "crafting_shaped",
  "group": "wildworld:leaf_pile",
  "pattern": [
    "##"
  ],
  "key": {
    "#": {
      "item": "minecraft:dark_oak_leaves"
    }
  },
  "result": {
    "item": "wildworld:dark_oak_leaf_pile",
    "count": 3
  }
}