{
  "type": "crafting_shaped",
  "group": "wildworld:leaf_pile",
  "pattern": [
    "##"
  ],
  "key": {
    "#": {
      "item": "minecraft:jungle_leaves"
    }
  },
  "result": {
    "item": "wildworld:jungle_leaf_pile",
    "count": 3
  }
}